/* XPM */
static char * frameATL_xpm[] = {
"5 30 34 1",
" 	c None",
".	c #080808",
"+	c #444444",
"@	c #4D4D4D",
"#	c #494949",
"$	c #464646",
"%	c #424242",
"&	c #3F3F3F",
"*	c #3F403F",
"=	c #3D3D3D",
"-	c #393939",
";	c #393A39",
">	c #3A393A",
",	c #373737",
"'	c #333333",
")	c #302F2F",
"!	c #2F2F30",
"~	c #29282A",
"{	c #282828",
"]	c #292828",
"^	c #1C1C1C",
"/	c #1C1C1E",
"(	c #1D1E1D",
"_	c #0D0D0E",
":	c #0C0F0E",
"<	c #0E0F0F",
"[	c #030404",
"}	c #040606",
"|	c #070705",
"1	c #040403",
"2	c #040304",
"3	c #040404",
"4	c #030303",
"5	c #020202",
".....",
".++++",
".@@@@",
".####",
".@@@@",
".####",
".$$$$",
".++++",
".%%%%",
".&&&*",
".====",
".-;;>",
".,,,,",
".''''",
".)!!)",
".~{{]",
".^//(",
"._::<",
".[}}|",
".1223",
".3333",
"33333",
"44444",
"44444",
"55555",
"55555",
"55555",
"55555",
"55555",
"55555"};
