/* XPM */
static char * maximizeI_xpm[] = {
"23 52 301 2",
"  	c None",
". 	c #404040",
"+ 	c #474747",
"@ 	c #5D5D5D",
"# 	c #6C6C6C",
"$ 	c #565656",
"% 	c #424242",
"& 	c #545454",
"* 	c #B7B7B7",
"= 	c #DBDBDB",
"- 	c #767676",
"; 	c #454545",
"> 	c #444444",
", 	c #898989",
"' 	c #FFFFFF",
") 	c #ADADAD",
"! 	c #6A6A6A",
"~ 	c #484848",
"{ 	c #666666",
"] 	c #818181",
"^ 	c #A0A0A0",
"/ 	c #414141",
"( 	c #5E5E5E",
"_ 	c #787878",
": 	c #FFFFF5",
"< 	c #8E8E8E",
"[ 	c #575757",
"} 	c #6D6D6D",
"| 	c #FFFFE8",
"1 	c #7F7F7F",
"2 	c #505050",
"3 	c #868686",
"4 	c #FFFFD2",
"5 	c #FFFFDB",
"6 	c #FFFFD6",
"7 	c #C6C2AD",
"8 	c #555555",
"9 	c #434343",
"0 	c #4C4C4C",
"a 	c #949494",
"b 	c #FFFFC2",
"c 	c #DBB06D",
"d 	c #494949",
"e 	c #CEA971",
"f 	c #CAAD71",
"g 	c #C6A974",
"h 	c #DFBB7F",
"i 	c #FFFFBB",
"j 	c #FFFFB4",
"k 	c #DBB06F",
"l 	c #DFB46C",
"m 	c #68635A",
"n 	c #CAA974",
"o 	c #FFFF97",
"p 	c #CEAD71",
"q 	c #FFFF94",
"r 	c #D2AD71",
"s 	c #FFFF91",
"t 	c #030303",
"u 	c #000000",
"v 	c #070500",
"w 	c #0C0900",
"x 	c #0E0A00",
"y 	c #0B0800",
"z 	c #050300",
"A 	c #100C00",
"B 	c #130F00",
"C 	c #191300",
"D 	c #1F1700",
"E 	c #221A00",
"F 	c #241B00",
"G 	c #211900",
"H 	c #0D0A00",
"I 	c #060500",
"J 	c #120E00",
"K 	c #271E00",
"L 	c #4A3E17",
"M 	c #6C5F34",
"N 	c #736534",
"O 	c #756734",
"P 	c #756534",
"Q 	c #706234",
"R 	c #6B5E34",
"S 	c #6A5E34",
"T 	c #6E6134",
"U 	c #766734",
"V 	c #6E5E28",
"W 	c #544203",
"X 	c #4D3C00",
"Y 	c #413200",
"Z 	c #050400",
"` 	c #0A0701",
" .	c #191401",
"..	c #2E2402",
"+.	c #80744B",
"@.	c #B9AD84",
"#.	c #C6B785",
"$.	c #CDBC85",
"%.	c #CFBE86",
"&.	c #CABA85",
"*.	c #BAAF85",
"=.	c #A9A185",
"-.	c #A8A085",
";.	c #B4AA85",
">.	c #C7B885",
",.	c #CFBF86",
"'.	c #C6B371",
").	c #9B7D14",
"!.	c #836606",
"~.	c #1B1501",
"{.	c #0C0901",
"].	c #271F03",
"^.	c #65592A",
"/.	c #BDB081",
"(.	c #D3C283",
"_.	c #E2CD85",
":.	c #E7D185",
"<.	c #E9D385",
"[.	c #E1CC85",
"}.	c #BBAF82",
"|.	c #808080",
"1.	c #A69E81",
"2.	c #DCC884",
"3.	c #E8D285",
"4.	c #DFC463",
"5.	c #BF9911",
"6.	c #2E2504",
"7.	c #0F0C02",
"8.	c #372C07",
"9.	c #93824D",
"0.	c #D0BD7E",
"a.	c #E8D080",
"b.	c #F5DB82",
"c.	c #F8DD83",
"d.	c #FADE83",
"e.	c #F2D882",
"f.	c #C7B67E",
"g.	c #777777",
"h.	c #ACA07B",
"i.	c #EDD481",
"j.	c #F9DD83",
"k.	c #F7DC82",
"l.	c #E9BB1F",
"m.	c #3C3008",
"n.	c #120E02",
"o.	c #43360A",
"p.	c #A39051",
"q.	c #DAC578",
"r.	c #F3D87C",
"s.	c #FBDE7D",
"t.	c #FCDF7D",
"u.	c #E8CF7A",
"v.	c #C3B176",
"w.	c #A69B72",
"x.	c #E5CC79",
"y.	c #F7C92A",
"z.	c #42360A",
"A.	c #130F03",
"B.	c #493A0B",
"C.	c #A7914C",
"D.	c #DEC470",
"E.	c #DFC570",
"F.	c #CFB76E",
"G.	c #C0AC6B",
"H.	c #BCA86B",
"I.	c #C1AD6C",
"J.	c #B1A16A",
"K.	c #626262",
"L.	c #9A8E68",
"M.	c #C4B06C",
"N.	c #BCA96B",
"O.	c #BEAA6B",
"P.	c #CBB56D",
"Q.	c #E0C670",
"R.	c #EDBF2A",
"S.	c #44360B",
"T.	c #131003",
"U.	c #4B3C0C",
"V.	c #A48E45",
"W.	c #DCC066",
"X.	c #D5BB65",
"Y.	c #716C59",
"Z.	c #6E6959",
"`.	c #6D6859",
" +	c #6F6A59",
".+	c #6C6859",
"++	c #666258",
"@+	c #706A59",
"#+	c #716B59",
"$+	c #BDA862",
"%+	c #E9BC28",
"&+	c #44370B",
"*+	c #4A3B0A",
"=+	c #8B6E14",
"-+	c #C9A01C",
";+	c #D8AD1E",
">+	c #090909",
",+	c #AC891A",
"'+	c #F0C022",
")+	c #433609",
"!+	c #130F02",
"~+	c #473708",
"{+	c #86680F",
"]+	c #C29616",
"^+	c #E8BA35",
"/+	c #43391E",
"(+	c #443D29",
"_+	c #443D2A",
":+	c #443D28",
"<+	c #342E1A",
"[+	c #262113",
"}+	c #443C27",
"|+	c #433B22",
"1+	c #C6A236",
"2+	c #F1C031",
"3+	c #413207",
"4+	c #120E01",
"5+	c #433304",
"6+	c #7E6008",
"7+	c #B78B0C",
"8+	c #DFB63E",
"9+	c #EDCC6E",
"0+	c #F0D586",
"a+	c #F0D588",
"b+	c #EECE74",
"c+	c #AE8B26",
"d+	c #765E17",
"e+	c #EBC863",
"f+	c #F0D587",
"g+	c #EECF76",
"h+	c #E9C252",
"i+	c #E3AF1B",
"j+	c #3D2E04",
"k+	c #010101",
"l+	c #110C00",
"m+	c #3E2E00",
"n+	c #755600",
"o+	c #AA7C00",
"p+	c #C89200",
"q+	c #D19900",
"r+	c #D5A318",
"s+	c #916B02",
"t+	c #634A05",
"u+	c #D09800",
"v+	c #392A00",
"w+	c #040404",
"x+	c #110C02",
"y+	c #392800",
"z+	c #6B4B00",
"A+	c #9B6C00",
"B+	c #B77F00",
"C+	c #BF8500",
"D+	c #BB8200",
"E+	c #855E02",
"F+	c #5D4205",
"G+	c #B88000",
"H+	c #302100",
"I+	c #080808",
"J+	c #110E08",
"K+	c #342100",
"L+	c #613E00",
"M+	c #8C5A00",
"N+	c #A66A00",
"O+	c #AD6F00",
"P+	c #B47C17",
"Q+	c #8C641C",
"R+	c #62491B",
"S+	c #B57D19",
"T+	c #A96D00",
"U+	c #120E07",
"V+	c #121212",
"W+	c #261907",
"X+	c #553200",
"Y+	c #7C4800",
"Z+	c #925500",
"`+	c #995900",
" @	c #A06411",
".@	c #B88B4D",
"+@	c #C7A574",
"@@	c #CAA97B",
"#@	c #BD9359",
"$@	c #A76F22",
"%@	c #52340A",
"&@	c #0C0C0C",
"*@	c #0E0E0E",
"=@	c #191918",
"-@	c #312212",
";@	c #593207",
">@	c #7D4100",
",@	c #844500",
"'@	c #854500",
")@	c #7F4302",
"!@	c #6C3C08",
"~@	c #3A2814",
"{@	c #131313",
"]@	c #171717",
"^@	c #1E1E1E",
"/@	c #222222",
"(@	c #232323",
"_@	c #212121",
":@	c #1C1C1C",
". . . . . . . . . . . . . . . . . . . . . . . ",
". . . . . . . . . . . . . . . . . . . . . . . ",
". . . . . . . . . . . . . . . . . . . . . . . ",
". . . . + @ # # # # # # # # # # # # $ % . . . ",
". . . & # # # # # # * = = * - # # # # # ; . . ",
". . > # # # # # # , ' ' ' ' ) # # # # # ! . . ",
". . ~ { { { { { { ] ' ' ' ' ^ { { { { { { / . ",
". . + ( ( ( ( ( ( _ : ' ' ' < ( ( ( ( ( ( / . ",
". . ; [ [ [ } } } } | ' ' ' 1 } } } @ [ [ / . ",
". . > 2 2 3 4 4 4 4 ' ' ' ' 5 6 6 4 7 8 2 / . ",
". . 9 0 0 a ' ' ' ' ' ' ' ' ' ' ' ' b @ 0 . . ",
". . . . . 8 ' ' ' ' ' ' ' ' ' ' ' ' c / . . . ",
". . . . . d e f g h i ' ' j k c l l m . . . . ",
". . . . . . / / . . n ' ' o 9 . . . . . . . . ",
". . . . . . . . . / p ' ' q 9 . . . . . . . . ",
". . . . . . . . . / r ' ' s > . . . . . . . . ",
". . . . . . . . . / r ' ' s > . . . . . . . . ",
". . . . . . . . . . d 8 8 > . . . . . . . . . ",
". . / . . . . . . . . . . . . . . . . . . . . ",
". . / 9 / . . . . . . . . . . . . . . % / . . ",
". . . / 9 ; ~ ~ ~ ~ ~ ~ ~ ~ ~ ~ ~ + > / . . . ",
". . . . . . . . . . . . . . . . . . . . . . . ",
". . . . . . . . . . . . . . . . . . . . . . . ",
". . . . . . . . . . . . . . . . . . . . . . . ",
". . . . . . . . . . . . . . . . . . . . . . . ",
". . . . . . . . . . . . . . . . . . . . . . . ",
"t t t t t t t t t t t t t t t t t t t t t t t ",
"t t t t t t t t t t t t t t t t t t t t t t t ",
"t u u u u u u u u u u u u u u u u u u u t t t ",
"u u u v w x x x x x x x x x x x x y z u u t t ",
"u u y A B C D E F F F F F F F F F F G H u t t ",
"u I J C K L M N O P Q R S T N U V W X Y Z t t ",
"u `  ...+.@.#.$.%.&.*.=.-.;.>.,.,.'.).!.~.t t ",
"u {.].^./.(._.:.<.[.}.|.|.1.2.<.<.3.4.5.6.t t ",
"u 7.8.9.0.a.b.c.d.e.f.g.g.h.i.d.d.j.k.l.m.t t ",
"u n.o.p.q.r.s.t.t.u.v.# # w.x.t.t.t.t.y.z.t t ",
"u A.B.C.D.E.F.G.H.I.J.K.K.L.M.N.O.P.Q.R.S.t t ",
"u T.U.V.W.X.Y.Z.`. +.+$ $ ++@+`.`.#+$+%+&+t t ",
"u A.*+=+-+;+>+>+>+>+>+>+>+>+>+>+>+>+,+'+)+t t ",
"u !+~+{+]+^+/+(+_+:+<+>+>+[+}+_+_+|+1+2+3+t t ",
"u 4+5+6+7+8+9+0+a+b+c+>+>+d+e+0+f+g+h+i+j+t t ",
"k+l+m+n+o+p+q+q+q+r+s+>+>+t+u+q+q+q+q+q+v+t t ",
"w+x+y+z+A+B+C+C+C+D+E+>+>+F+G+C+C+C+C+C+H+t t ",
"I+J+K+L+M+N+O+O+O+P+Q+>+>+R+S+O+O+O+O+T+U+t t ",
">+V+W+X+Y+Z+`+`+`+ @.@+@@@#@$@`+`+`+`+%@&@t t ",
"u *@=@-@;@>@,@'@'@'@'@'@'@'@'@'@)@!@~@{@>+t t ",
"u k+*@]@^@/@(@(@(@(@(@(@(@(@(@(@_@:@{@>+u t t ",
"u u u u u u u u u u u u u u u u u u u u u t t ",
"t t t t t t t t t t t t t t t t t t t t t t t ",
"t t t t t t t t t t t t t t t t t t t t t t t ",
"t t t t t t t t t t t t t t t t t t t t t t t ",
"k+k+k+k+k+k+k+k+k+k+k+k+k+k+k+k+k+k+k+k+k+k+k+"};
