/* XPM */
static char * taskbarbg_xpm[] = {
"1 30 31 1",
" 	c None",
".	c #454545",
"+	c #9D6A46",
"@	c #414041",
"#	c #3F3F3F",
"$	c #3D3C3D",
"%	c #3B3A3B",
"&	c #393838",
"*	c #363636",
"=	c #353434",
"-	c #323232",
";	c #302F30",
">	c #2D2E2E",
",	c #2B2B2C",
"'	c #292929",
")	c #272727",
"!	c #252625",
"~	c #232423",
"{	c #212121",
"]	c #1F1E1F",
"^	c #1D1D1C",
"/	c #1B1A1B",
"(	c #191819",
"_	c #171716",
":	c #151514",
"<	c #121212",
"[	c #101010",
"}	c #0E0E0D",
"|	c #0C0C0C",
"1	c #0A0909",
"2	c #070708",
".",
"+",
"@",
"#",
"$",
"%",
"&",
"*",
"=",
"-",
";",
">",
",",
"'",
")",
"!",
"~",
"{",
"]",
"^",
"/",
"(",
"_",
":",
"<",
"[",
"}",
"|",
"1",
"2"};
